#FIG 3.2  Produced by xfig version 3.2.5b
Landscape
Center
Inches
Letter  
100.00
Single
-2
1200 2
0 32 #000000
6 2775 -5100 3900 -4500
2 4 0 1 0 7 50 -1 -1 0.000 0 0 10 0 0 5
	 3900 -4500 2775 -4500 2775 -5100 3900 -5100 3900 -4500
4 0 0 50 -1 18 16 0.0000 6 270 690 3000 -4725 Body\001
-6
6 4050 -6750 5175 -6150
2 4 0 1 0 7 50 -1 -1 0.000 0 0 10 0 0 5
	 5175 -6150 4050 -6150 4050 -6750 5175 -6750 5175 -6150
4 0 0 50 -1 18 16 0.0000 6 225 900 4200 -6375 Queue\001
-6
6 6825 -7425 8775 -6225
2 4 1 1 0 7 50 -1 -1 4.000 0 0 13 0 0 5
	 8775 -6225 8775 -7425 6825 -7425 6825 -6225 8775 -6225
2 4 0 1 0 7 50 -1 -1 0.000 0 0 15 0 0 5
	 8250 -6450 8250 -7125 7050 -7125 7050 -6450 8250 -6450
4 0 0 50 -1 18 16 0.0000 6 270 870 7275 -6675 PM(M)\001
-6
1 1 0 1 0 7 50 -1 -1 0.000 1 0.0000 2925 -3750 150 75 2925 -3750 3075 -3675
1 1 0 1 0 7 50 -1 -1 0.000 1 0.0000 10725 -3600 150 75 10725 -3600 10875 -3525
1 1 0 1 0 7 50 -1 -1 0.000 1 0.0000 10050 -3900 150 75 10050 -3900 10200 -3825
1 1 0 1 0 7 50 -1 -1 0.000 1 0.0000 11400 -3300 150 75 11400 -3300 11550 -3225
2 1 0 1 0 7 50 -1 -1 0.000 0 0 -1 0 1 2
	2 1 1.00 60.00 120.00
	 2925 -3825 3225 -4500
2 1 0 1 0 7 50 -1 -1 0.000 0 0 -1 0 1 2
	2 1 1.00 60.00 120.00
	 1725 -3750 2775 -3750
2 1 0 1 0 7 50 -1 -1 0.000 0 0 -1 0 1 2
	2 1 1.00 60.00 120.00
	 3600 -1200 3600 -4500
2 4 1 1 0 7 50 -1 -1 4.000 0 0 14 0 0 5
	 6900 825 6900 -1200 3075 -1200 3075 825 6900 825
2 4 1 1 0 7 50 -1 -1 4.000 0 0 10 0 0 5
	 11175 825 11175 -1500 9600 -1500 9600 825 11175 825
2 1 0 1 0 7 50 -1 -1 0.000 0 0 -1 0 1 3
	2 1 1.00 60.00 120.00
	 7575 -6450 7350 -825 6975 -825
2 1 0 1 0 7 50 -1 -1 0.000 0 0 -1 0 1 4
	2 1 1.00 60.00 120.00
	 10125 -6825 9600 -6825 7557 -531 6882 -531
2 1 0 1 0 7 50 -1 -1 0.000 0 0 -1 1 0 4
	2 1 1.00 60.00 120.00
	 2775 -4800 2175 -4500 2175 0 3075 0
2 1 0 1 0 7 50 -1 -1 0.000 0 0 -1 0 1 3
	2 1 1.00 60.00 120.00
	 2925 -3675 2925 -450 3075 -225
2 1 2 1 0 7 50 -1 -1 3.000 0 0 -1 1 0 2
	0 0 1.00 60.00 120.00
	 4125 -6225 3300 -5100
2 1 0 1 0 7 50 -1 -1 0.000 0 0 -1 0 1 2
	2 1 1.00 60.00 120.00
	 4050 -6525 1725 -6525
2 1 0 1 0 7 50 -1 -1 0.000 0 0 -1 0 1 2
	2 1 1.00 60.00 120.00
	 11175 -5475 10725 -3675
2 1 0 1 0 7 50 -1 -1 0.000 0 0 -1 0 1 2
	2 1 1.00 60.00 120.00
	 10725 -6525 10050 -3975
2 1 0 1 0 7 50 -1 -1 0.000 0 0 -1 1 0 2
	2 1 1.00 60.00 120.00
	 4500 -1200 4500 -6150
2 1 0 1 0 7 50 -1 -1 0.000 0 0 -1 0 1 2
	2 1 1.00 60.00 120.00
	 7050 -6750 5203 -6415
2 1 0 1 0 7 50 -1 -1 0.000 0 0 -1 0 1 2
	2 1 1.00 60.00 120.00
	 7050 -6900 5168 -6589
2 1 0 1 0 7 50 -1 -1 0.000 0 0 -1 1 0 3
	2 1 1.00 60.00 120.00
	 7500 -6375 7314 -919 6939 -919
2 1 0 1 0 7 50 -1 -1 0.000 0 0 -1 0 1 4
	2 1 1.00 60.00 120.00
	 10125 -6900 9600 -6900 7500 -600 6900 -600
2 1 0 1 0 7 50 -1 -1 0.000 0 0 -1 0 1 2
	2 1 1.00 60.00 120.00
	 9600 -150 6900 -150
2 1 0 1 0 7 50 -1 -1 0.000 0 0 -1 1 0 2
	2 1 1.00 60.00 120.00
	 11025 -1500 11025 -4500
2 1 0 1 0 7 50 -1 -1 0.000 0 0 -1 1 0 2
	2 1 1.00 60.00 120.00
	 11100 -4425 11100 -1425
2 4 1 1 0 7 50 -1 -1 4.000 0 0 13 0 0 5
	 11850 -4200 11850 -7425 9900 -7425 9900 -4200 11850 -4200
2 4 0 1 0 7 50 -1 -1 0.000 0 0 15 0 0 5
	 11625 -6525 11625 -7200 10125 -7200 10125 -6525 11625 -6525
2 1 0 1 0 7 50 -1 -1 0.000 0 0 -1 0 1 2
	2 1 1.00 94.87 189.75
	 10050 -5925 8325 -6675
2 1 0 1 0 7 50 -1 -1 0.000 0 0 -1 0 1 2
	2 1 1.00 60.00 120.00
	 11625 -7050 13425 -7050
2 4 0 1 0 7 50 -1 -1 0.000 0 0 15 0 0 5
	 11625 -4500 11625 -5175 10125 -5175 10125 -4500 11625 -4500
2 1 0 1 0 7 50 -1 -1 0.000 0 0 -1 0 1 2
	2 1 1.00 60.00 120.00
	 11625 -6000 13425 -6000
2 1 0 1 0 7 50 -1 -1 0.000 0 0 -1 0 1 2
	2 1 1.00 60.00 120.00
	 11625 -5025 13425 -5025
2 1 0 1 0 7 50 -1 -1 0.000 0 0 -1 1 0 2
	2 1 1.00 60.00 120.00
	 4425 -1200 4425 -6150
2 1 0 1 0 7 50 -1 -1 0.000 0 0 -1 0 1 2
	2 1 1.00 60.00 120.00
	 13425 -3900 10275 -3900
2 1 0 1 0 7 50 -1 -1 0.000 0 0 -1 0 1 2
	2 1 1.00 60.00 120.00
	 13425 -3600 10950 -3600
2 4 1 1 0 7 50 -1 -1 4.000 0 0 15 0 0 5
	 13425 2175 13425 -7875 1725 -7875 1725 2175 13425 2175
2 1 0 1 0 7 50 -1 -1 0.000 0 0 -1 0 1 3
	2 1 1.00 60.00 120.00
	 7950 -6375 7425 -675 6975 -675
2 1 0 1 0 7 50 -1 -1 0.000 0 0 -1 1 0 3
	2 1 1.00 60.00 120.00
	 7875 -6375 7425 -750 6975 -750
2 1 0 1 0 7 50 -1 -1 0.000 0 0 -1 0 1 4
	2 1 1.00 60.00 120.00
	 10050 -5775 9600 -5775 7565 -407 6890 -407
2 1 0 1 0 7 50 -1 -1 0.000 0 0 -1 0 1 4
	2 1 1.00 60.00 120.00
	 10050 -5625 9600 -5625 7606 -287 6931 -287
2 4 0 1 0 7 50 -1 -1 0.000 0 0 15 0 0 5
	 11625 -5475 11625 -6150 10125 -6150 10125 -5475 11625 -5475
2 1 0 1 0 7 50 -1 -1 0.000 0 0 -1 1 0 3
	2 1 1.00 60.00 120.00
	 9600 -900 8325 -900 4875 -6150
2 4 1 1 0 7 50 -1 -1 4.000 0 0 14 0 0 5
	 12900 1200 12900 -1875 2400 -1875 2400 1200 12900 1200
2 1 0 1 0 7 50 -1 -1 0.000 0 0 -1 0 1 2
	2 1 1.00 60.00 120.00
	 6900 -75 9600 -75
2 1 0 1 0 7 50 -1 -1 0.000 0 0 -1 0 1 3
	2 1 1.00 60.00 120.00
	 9900 -3975 5100 -3975 3900 -5025
2 1 0 1 0 7 50 -1 -1 0.000 0 0 -1 0 1 2
	2 1 1.00 60.00 120.00
	 13425 -3300 11550 -3300
2 1 0 1 0 7 50 -1 -1 0.000 0 0 -1 0 1 2
	2 1 1.00 60.00 120.00
	 11400 -4500 11400 -3450
2 1 0 1 0 7 50 -1 -1 0.000 0 0 -1 0 1 3
	2 1 1.00 60.00 120.00
	 11175 -3375 5100 -3375 3900 -4425
2 1 0 1 0 7 50 -1 -1 0.000 0 0 -1 0 1 3
	2 1 1.00 60.00 120.00
	 10575 -3675 5100 -3675 3900 -4725
2 1 0 1 0 7 50 -1 -1 0.000 0 0 -1 0 1 2
	2 1 1.00 94.87 189.75
	 10125 -7050 8325 -7050
4 0 0 50 -1 18 14 0.0000 6 165 1350 225 -3675 !R\\_m1$(f,val)$\001
4 0 0 50 -1 18 16 0.0000 4 210 195 3300 -825 A\001
4 0 0 50 -1 18 16 0.0000 4 270 525 9750 -1125 B[k]\001
4 0 0 50 -1 18 14 0.0000 6 180 1350 7650 75 !Q\\_gee$(args)$\001
4 0 0 50 -1 18 16 0.0000 4 270 1455 1950 -7350 Composite\001
4 0 0 50 -1 18 14 0.0000 6 165 990 1200 -6225 ?Q\\_m1$(f)$\001
4 0 0 50 -1 18 14 0.0000 6 165 1170 2250 -5550 Serve\\_*$(f)$\001
4 0 0 50 -1 18 14 0.0000 6 180 1440 1800 225 Call\\_m1$(args)$\001
4 0 0 50 -1 18 14 0.0000 6 180 1260 4575 -1350 !Q\\_m2$(args)$\001
4 0 0 50 -1 18 16 0.0000 6 270 2835 10200 -6825 Proxy\\_m1($p_{B^i}$)\001
4 0 0 50 -1 18 14 0.0000 6 180 1260 12300 -7125 R\\_m1$(p,val)$\001
4 0 0 50 -1 18 16 0.0000 6 270 1950 10200 -4725 Proxy\\_c1($p$)\001
4 0 0 50 -1 18 16 0.0000 6 270 2835 10200 -5700 Proxy\\_m2($p_{B^i}$)\001
4 0 0 50 -1 18 14 0.0000 6 180 1800 12300 -6075 R\\_m2$(p_{B^i},val)$\001
4 0 0 50 -1 18 14 0.0000 6 180 1260 12300 -5100 R\\_c1$(p,val)$\001
4 0 0 50 -1 18 14 0.0000 6 180 1260 4500 -1575 !Q\\_m1$(args)$\001
4 0 0 50 -1 18 14 0.0000 6 180 2160 11175 -2475 Get\\_Value\\_c1$(p, val)$\001
4 0 0 50 -1 18 14 0.0000 6 180 1440 11175 -2250 Forward\\_c1$(p)$\001
4 0 0 50 -1 18 14 0.0000 6 165 1260 7575 -4500 Get\\_m2\\_Proxy\001
4 0 0 50 -1 18 14 0.0000 6 180 2520 7575 -4275 R\\_Get\\_m2\\_Proxy$(p_{B^i})$\001
4 0 0 50 -1 18 14 0.0000 6 180 2250 8325 -7125 Activate\\_m1$(p_{B^i},G)$\001
4 0 0 50 -1 18 14 0.0000 6 165 1260 8400 -2100 WaitN\\_m2$(n)$\001
4 0 0 50 -1 18 14 0.0000 6 165 1890 8325 -1875 R\\_WaitN\\_m2$(n,val)$\001
4 0 0 50 -1 18 14 0.0000 6 165 1800 8250 -1650 GetNthValue\\_m2$(i)$\001
4 0 0 50 -1 18 14 0.0000 6 165 2430 8175 -1425 R\\_GetNthValue\\_m2$(i,val)$\001
4 0 0 50 -1 18 14 0.0000 6 165 1260 8475 -3075 WaitN\\_m1$(n)$\001
4 0 0 50 -1 18 14 0.0000 6 165 1890 8400 -2850 R\\_WaitN\\_m1$(n,val)$\001
4 0 0 50 -1 18 14 0.0000 6 165 1800 8325 -2625 GetNthValue\\_m1$(i)$\001
4 0 0 50 -1 18 14 0.0000 6 165 2430 8250 -2400 R\\_GetNthValue\\_m1$(i,val)$\001
4 0 0 50 -1 18 14 0.0000 6 180 1170 5250 -4050 Q\\_m1$(args)$\001
4 0 0 50 -1 18 14 0.0000 6 165 900 5475 -6825 !Bind$(i)$\001
4 0 0 50 -1 18 14 0.0000 6 165 1080 5475 -6450 !Unbind$(i)$\001
4 0 0 50 -1 18 14 0.0000 6 180 1260 8100 -675 !Q\\_c1$(args)$\001
4 0 0 50 -1 18 14 0.0000 6 180 1260 7725 300 ?R\\_gee$(val)$\001
4 0 0 50 -1 18 14 0.0000 6 180 2520 5625 -2625 R\\_Get\\_m1\\_Proxy$(p_{B^i})$\001
4 0 0 50 -1 18 14 0.0000 6 165 1260 5625 -2850 Get\\_m1\\_Proxy\001
4 0 0 50 -1 18 14 0.0000 6 180 1170 5325 -3750 Q\\_m2$(args)$\001
4 0 0 50 -1 18 14 0.0000 6 180 1170 5400 -3450 Q\\_c1$(args)$\001
4 0 0 50 -1 18 14 0.0000 6 180 1170 12825 -3975 Q\\_m1$(args)$\001
4 0 0 50 -1 18 14 0.0000 6 180 1170 12825 -3675 Q\\_m2$(args)$\001
4 0 0 50 -1 18 14 0.0000 6 180 1170 12825 -3375 Q\\_c1$(args)$\001
4 0 0 50 -1 18 14 0.0000 6 180 2250 8325 -6450 Activate\\_m2$(p_{B^i},G)$\001
