#,Original,Pre-processed
RVC,0.099355423,0.0922060625
EP1D,0.0992115917,0.087752384
EP2D,0.0974802898,0.0912471365
CRVC,0.0922011506,0.0922060625
HC,0.0980236522,0.0871397368
HCP,0.0938685276,0.0907836556
GO,0.0908853612,0.0912258271
