1,0.6373675,-1.9553
2,0.644335,-1.9518
3,0.6443475,-1.9513
4,0.644935,-1.9523
5,0.6465825,-1.9528
6,0.6476125,-1.9552
7,0.648445,-1.9523
8,0.650295,-1.9517
9,0.65103,-1.9538
10,0.653855,-1.9526
11,0.768435,-0.18162
12,0.7688,-0.18101
13,0.76895,-0.17561
14,0.7700075,-0.17981
15,0.7730475,-0.18063
16,0.773935,-0.17558
17,0.7742875,-0.17868
18,0.774495,-0.17276
19,0.77509,-0.17979
20,0.77583,-0.17359
21,0.962465,0.96674
22,0.9625575,0.97209
23,0.9671275,0.97488
24,0.9673475,0.97678
25,0.973185,0.99508
26,0.9738075,0.98145
27,0.9743375,0.98402
28,0.97826,0.97979
29,0.9881275,0.97551
30,1.017915,0.97668
31,0.9605225,0.95923
32,0.9689825,0.97632
33,0.9715525,0.97719
34,0.971965,0.97511
35,0.97304,0.9769
36,0.9798,0.99169
37,0.9905825,0.97578
38,0.991195,0.99488
39,1.001095,0.98084
40,1.0013725,0.9973
41,1.012795,1.032
42,1.01591,1.0341
43,1.025085,1.0303
44,1.0253075,1.0345
45,1.0286075,1.0289
46,1.032855,1.0326
47,1.0364225,1.0296
48,1.0397575,1.0354
49,1.045305,1.031
50,1.05228,1.0304
51,1.0183475,1.028
52,1.0190975,1.0325
53,1.0216275,1.0337
54,1.02887,1.0293
55,1.029375,1.0326
56,1.0300275,1.0331
57,1.0358925,1.0275
58,1.044585,1.0286
59,1.047245,1.033
60,1.05225,1.0314
